1.215.99.54
1.221.191.187
1.222.193.115
1.233.8.172
1.34.134.46
1.34.201.192
1.39.84.230
2.136.178.85
2.68.100.191
2.83.109.10
5.101.195.129
5.154.79.179
14.155.113.233
14.47.241.119
14.50.222.244
14.52.118.191
14.56.129.75
24.194.250.176
24.45.127.35
27.154.227.18
27.154.7.214
27.156.248.114
27.54.62.32
31.133.13.138
31.16.176.37
31.17.221.180
31.187.178.69
31.20.241.196
32.214.23.166
35.129.203.109
36.112.170.34
36.129.12.99
36.153.103.70
36.234.121.111
36.234.121.211
36.234.122.149
37.201.124.135
37.70.170.246
37.80.23.214
39.110.189.10
39.113.136.178
39.117.153.184
39.121.247.18
39.164.73.120
39.90.156.6
42.200.149.213
42.200.188.150
42.200.202.27
42.200.239.123
42.2.164.164
42.2.81.39
45.117.251.225
45.179.181.31
46.142.201.143
46.254.64.168
49.162.53.182
49.171.71.59
49.174.76.10
49.175.64.110
49.66.157.234
58.153.94.123
58.171.146.242
58.209.212.31
58.214.12.78
58.215.8.34
58.217.66.164
58.220.97.52
58.23.150.26
58.247.27.242
58.47.159.195
59.16.185.111
59.16.47.137
59.17.43.91
59.21.114.29
59.22.41.237
59.31.48.83
59.36.17.7
59.9.39.132
60.137.160.218
60.248.131.30
60.248.22.5
60.249.37.208
60.250.239.13
61.102.3.48
61.153.33.2
61.183.248.6
61.35.131.182
61.39.84.230
61.78.117.41
61.79.60.71
62.108.29.233
62.195.24.36
62.197.120.166
62.227.58.128
62.238.69.44
62.45.115.53
62.6.217.114
66.234.214.7
67.148.101.82
68.169.171.97
68.192.241.142
69.194.21.73
70.134.63.139
70.36.5.205
71.251.26.120
72.130.28.46
72.20.154.4
72.219.61.203
73.181.188.3
73.211.171.150
73.254.0.31
74.104.169.114
74.132.128.150
74.136.54.236
74.199.31.212
76.126.169.185
77.120.38.35
77.145.6.22
77.160.42.69
77.199.223.79
77.232.154.172
77.251.221.89
77.251.5.112
77.48.235.45
77.56.226.60
77.60.23.33
77.68.168.133
78.126.94.188
78.139.32.74
78.225.73.211
78.251.87.55
78.60.107.163
78.63.21.91
78.83.141.109
79.188.252.143
80.11.227.212
80.114.227.112
80.119.209.243
80.201.218.162
80.55.205.157
80.56.130.5
80.80.147.11
81.140.24.150
81.38.86.107
82.127.90.102
82.142.28.77
82.169.68.242
82.197.161.141
82.212.165.107
82.62.125.23
82.64.52.192
82.65.138.120
82.72.79.213
82.77.91.43
83.128.192.100
83.162.237.154
83.165.216.26
83.174.209.26
83.199.88.121
83.235.168.84
83.247.82.34
83.46.66.137
83.83.175.34
83.93.17.7
84.104.109.152
84.106.222.2
84.107.170.17
84.192.185.71
84.194.253.28
84.197.38.77
84.226.73.165
84.227.123.235
84.227.174.243
84.24.32.138
84.24.82.22
84.27.194.110
84.30.24.173
84.31.194.40
84.81.194.214
84.83.75.212
85.160.67.40
85.216.251.22
85.2.243.173
85.229.140.107
86.101.88.7
86.218.79.161
86.85.52.152
87.11.247.44
87.139.171.23
87.152.51.118
87.182.95.229
87.240.62.53
87.56.192.128
87.67.170.96
88.101.158.243
88.123.207.134
88.12.4.49
88.209.250.130
89.135.190.125
89.145.206.105
89.157.108.102
89.17.150.203
89.248.251.39
89.3.86.168
89.56.227.235
90.112.144.228
90.145.122.30
90.173.223.111
90.229.132.160
90.46.35.111
90.54.68.88
90.91.30.52
91.135.213.94
91.160.106.33
91.178.98.58
91.182.198.86
91.184.168.247
91.203.36.97
91.46.27.201
91.86.136.83
91.90.184.42
92.108.124.109
92.170.113.218
92.207.66.115
92.27.58.64
93.240.122.61
93.24.53.36
93.46.186.34
93.70.221.75
93.83.121.70
94.225.198.23
94.33.52.7
95.165.234.50
95.67.125.32
95.96.195.63
97.95.20.171
98.213.97.109
98.248.84.30
99.155.108.36
101.96.142.229
103.112.4.178
103.251.200.114
103.3.234.61
103.93.197.106
104.188.144.141
106.104.130.254
106.111.77.166
106.240.25.19
106.241.205.11
106.241.238.171
106.243.255.52
106.248.48.249
106.249.136.78
106.250.55.91
106.252.225.196
106.91.215.202
107.3.145.243
108.93.17.79
109.108.86.119
109.11.204.55
109.18.42.40
109.18.6.101
109.252.252.34
109.80.236.2
110.143.40.179
110.184.225.16
110.88.24.140
111.160.234.146
112.118.105.136
112.161.176.102
112.171.82.62
112.216.56.227
112.222.195.19
112.4.106.227
112.65.147.246
113.108.200.250
113.120.68.231
113.161.87.175
114.240.112.2
114.249.238.90
114.33.146.205
114.33.83.233
114.34.102.83
114.86.204.22
115.135.122.137
115.160.162.174
115.20.160.35
115.21.114.169
115.221.203.105
115.221.205.215
115.236.48.226
115.78.129.123
115.78.233.180
115.79.24.163
115.93.145.147
115.93.21.13
116.208.24.177
116.227.18.147
116.235.138.248
116.238.133.176
116.238.50.55
116.49.191.240
116.89.36.6
117.157.78.2
117.172.198.115
117.28.109.119
117.28.109.123
117.28.109.68
117.56.14.183
118.174.196.250
118.200.71.29
118.212.69.142
118.35.11.240
118.37.187.24
118.37.226.214
118.40.45.142
118.44.136.144
118.45.90.201
119.192.3.149
119.195.244.186
119.197.85.23
119.203.84.117
119.247.38.236
119.63.230.59
120.159.243.200
120.224.171.4
120.253.143.210
120.33.136.25
120.6.245.201
121.129.59.8
121.135.186.73
121.136.217.89
121.142.171.122
121.144.221.56
121.146.106.88
121.146.69.151
121.147.105.95
121.154.38.171
121.157.25.167
121.158.39.164
121.162.34.243
121.165.227.131
121.165.45.75
121.166.110.101
121.170.129.162
121.170.244.127
121.174.87.39
121.179.23.166
121.186.105.86
121.34.238.106
121.99.155.117
122.100.151.233
122.117.87.209
122.179.129.115
122.224.167.146
122.226.98.206
122.45.166.223
122.58.221.72
122.70.153.99
123.132.150.187
123.139.160.187
123.139.179.87
123.142.161.117
123.143.95.38
123.203.204.106
124.128.80.70
124.128.80.74
124.170.235.123
124.197.184.18
124.19.87.191
124.230.26.56
124.230.72.26
124.77.254.122
124.77.31.134
124.78.158.25
125.129.229.230
125.129.248.91
125.130.187.200
125.130.44.18
125.132.204.123
125.136.153.7
125.139.180.7
125.139.19.164
125.227.28.30
125.227.57.106
125.228.30.173
125.63.87.6
125.68.185.28
125.90.1.106
128.106.136.138
130.204.181.167
130.204.59.236
132.147.117.115
132.147.123.112
133.186.106.55
138.19.231.140
140.112.147.250
140.112.154.102
140.116.44.52
140.117.103.21
140.117.98.128
140.206.188.198
142.179.124.83
144.255.18.193
145.53.247.78
146.158.136.100
147.192.114.150
150.117.0.42
151.127.28.237
154.232.50.176
154.68.24.196
159.192.98.94
163.158.11.171
163.23.118.212
164.125.161.27
165.194.18.40
165.21.18.230
172.116.217.247
173.162.192.5
175.124.199.248
175.126.10.247
175.126.180.116
175.141.251.149
175.158.157.196
175.158.165.246
175.181.145.208
175.192.180.225
175.193.2.130
175.193.92.135
175.199.171.177
175.204.175.68
175.213.191.248
176.114.231.44
176.127.70.228
176.127.74.70
178.116.64.26
178.119.2.56
178.119.91.82
178.40.218.175
180.100.232.6
180.112.13.220
180.126.195.230
180.165.116.140
180.182.233.87
180.189.72.149
180.228.56.165
181.167.28.11
181.48.116.132
182.208.82.226
182.224.159.253
182.229.224.251
182.46.50.239
182.52.63.68
182.55.28.215
183.178.113.150
183.230.146.203
183.251.91.131
183.61.31.242
183.63.199.162
183.66.215.18
183.69.202.115
183.69.202.151
183.69.205.211
183.89.221.58
183.98.167.214
184.174.135.193
185.22.195.254
185.223.236.29
185.23.43.60
185.240.191.98
185.27.62.215
185.44.156.129
185.4.79.161
188.127.179.8
188.134.83.117
188.149.138.174
188.64.135.18
188.75.139.84
194.208.52.112
195.38.126.48
195.91.239.226
196.47.133.41
199.91.112.12
202.109.249.42
202.134.158.252
202.31.237.198
202.98.38.188
203.186.115.134
203.186.122.78
203.204.99.134
209.146.26.50
209.16.94.59
210.113.34.226
210.120.6.124
210.6.26.190
210.96.90.229
210.99.92.225
211.105.171.23
211.140.214.76
211.157.158.2
211.176.176.9
211.187.193.227
211.192.233.59
211.194.28.25
211.207.176.154
211.22.182.218
211.228.178.74
211.23.211.153
211.250.217.80
211.38.26.36
211.58.211.60
211.58.25.165
211.75.116.143
212.13.30.164
212.187.60.177
212.237.99.89
213.219.170.18
213.247.66.150
217.122.77.173
217.123.74.192
217.169.16.14
217.227.82.26
218.102.138.114
218.1.159.145
218.144.155.163
218.146.83.158
218.22.34.226
218.253.64.194
218.57.138.106
218.85.36.204
219.147.26.110
219.240.111.36
219.70.196.47
219.73.86.206
219.79.13.57
219.89.203.56
220.119.162.36
220.125.223.250
220.125.74.30
220.130.192.100
220.132.85.66
220.133.115.170
220.133.233.177
220.133.87.177
220.135.218.4
220.135.33.224
220.135.36.89
220.135.38.22
220.67.217.155
220.78.172.208
220.88.83.110
220.95.248.13
221.166.196.36
221.208.189.45
221.221.151.184
222.106.15.224
222.106.153.111
222.117.12.192
222.117.1.43
222.118.4.109
222.153.94.233
222.164.65.109
222.173.75.220
222.233.2.138
222.236.195.177
222.238.83.184
222.245.59.164
222.65.137.121
222.70.223.4
223.100.54.17
223.94.62.254
